Codes/Complex Adder/simulation/qsim/Complex_Adder.msim.vcd
$comment
	File created using the following command:
		vcd file Complex_Adder.msim.vcd -direction
$end
$date
	Sun Nov 23 13:06:08 2025
$end
$version
	ModelSim Version 10.5b
$end
$timescale
	1ps
$end

$scope module complex_adder_vhd_vec_tst $end
$var wire 1 ! Ai [2] $end
$var wire 1 " Ai [1] $end
$var wire 1 # Ai [0] $end
$var wire 1 $ Ar [2] $end
$var wire 1 % Ar [1] $end
$var wire 1 & Ar [0] $end
$var wire 1 ' Bi [2] $end
$var wire 1 ( Bi [1] $end
$var wire 1 ) Bi [0] $end
$var wire 1 * Br [2] $end
$var wire 1 + Br [1] $end
$var wire 1 , Br [0] $end
$var wire 1 - Yi [6] $end
$var wire 1 . Yi [5] $end
$var wire 1 / Yi [4] $end
$var wire 1 0 Yi [3] $end
$var wire 1 1 Yi [2] $end
$var wire 1 2 Yi [1] $end
$var wire 1 3 Yi [0] $end
$var wire 1 4 Yr [6] $end
$var wire 1 5 Yr [5] $end
$var wire 1 6 Yr [4] $end
$var wire 1 7 Yr [3] $end
$var wire 1 8 Yr [2] $end
$var wire 1 9 Yr [1] $end
$var wire 1 : Yr [0] $end

$scope module i1 $end
$var wire 1 ; gnd $end
$var wire 1 < vcc $end
$var wire 1 = unknown $end
$var wire 1 > devoe $end
$var wire 1 ? devclrn $end
$var wire 1 @ devpor $end
$var wire 1 A ww_devoe $end
$var wire 1 B ww_devclrn $end
$var wire 1 C ww_devpor $end
$var wire 1 D ww_Ar [2] $end
$var wire 1 E ww_Ar [1] $end
$var wire 1 F ww_Ar [0] $end
$var wire 1 G ww_Ai [2] $end
$var wire 1 H ww_Ai [1] $end
$var wire 1 I ww_Ai [0] $end
$var wire 1 J ww_Br [2] $end
$var wire 1 K ww_Br [1] $end
$var wire 1 L ww_Br [0] $end
$var wire 1 M ww_Bi [2] $end
$var wire 1 N ww_Bi [1] $end
$var wire 1 O ww_Bi [0] $end
$var wire 1 P ww_Yr [6] $end
$var wire 1 Q ww_Yr [5] $end
$var wire 1 R ww_Yr [4] $end
$var wire 1 S ww_Yr [3] $end
$var wire 1 T ww_Yr [2] $end
$var wire 1 U ww_Yr [1] $end
$var wire 1 V ww_Yr [0] $end
$var wire 1 W ww_Yi [6] $end
$var wire 1 X ww_Yi [5] $end
$var wire 1 Y ww_Yi [4] $end
$var wire 1 Z ww_Yi [3] $end
$var wire 1 [ ww_Yi [2] $end
$var wire 1 \ ww_Yi [1] $end
$var wire 1 ] ww_Yi [0] $end
$var wire 1 ^ \Yr[0]~output_o\ $end
$var wire 1 _ \Yr[1]~output_o\ $end
$var wire 1 ` \Yr[2]~output_o\ $end
$var wire 1 a \Yr[3]~output_o\ $end
$var wire 1 b \Yr[4]~output_o\ $end
$var wire 1 c \Yr[5]~output_o\ $end
$var wire 1 d \Yr[6]~output_o\ $end
$var wire 1 e \Yi[0]~output_o\ $end
$var wire 1 f \Yi[1]~output_o\ $end
$var wire 1 g \Yi[2]~output_o\ $end
$var wire 1 h \Yi[3]~output_o\ $end
$var wire 1 i \Yi[4]~output_o\ $end
$var wire 1 j \Yi[5]~output_o\ $end
$var wire 1 k \Yi[6]~output_o\ $end
$var wire 1 l \Ar[0]~input_o\ $end
$var wire 1 m \Br[1]~input_o\ $end
$var wire 1 n \Br[0]~input_o\ $end
$var wire 1 o \Mult0|mult_core|$00031|out_bit[0]~0_combout\ $end
$var wire 1 p \Mult0|mult_core|padder|adder[0]|auto_generated|op_1~0_combout\ $end
$var wire 1 q \Bi[1]~input_o\ $end
$var wire 1 r \Ai[0]~input_o\ $end
$var wire 1 s \Bi[0]~input_o\ $end
$var wire 1 t \Mult1|mult_core|$00031|out_bit[0]~0_combout\ $end
$var wire 1 u \Mult1|mult_core|padder|adder[0]|auto_generated|op_1~0_combout\ $end
$var wire 1 v \Add0~0_combout\ $end
$var wire 1 w \Ar[1]~input_o\ $end
$var wire 1 x \Mult0|mult_core|mul_lfrg_first_mod|left_bit[0]~0_combout\ $end
$var wire 1 y \Mult0|mult_core|mul_lfrg_first_mod|right_bit[0]~0_combout\ $end
$var wire 1 z \Mult0|mult_core|padder|adder[0]|auto_generated|op_1~1\ $end
$var wire 1 { \Mult0|mult_core|padder|adder[0]|auto_generated|op_1~2_combout\ $end
$var wire 1 | \Ai[1]~input_o\ $end
$var wire 1 } \Mult1|mult_core|mul_lfrg_first_mod|left_bit[0]~0_combout\ $end
$var wire 1 ~ \Mult1|mult_core|mul_lfrg_first_mod|right_bit[0]~0_combout\ $end
$var wire 1 !! \Mult1|mult_core|padder|adder[0]|auto_generated|op_1~1\ $end
$var wire 1 "! \Mult1|mult_core|padder|adder[0]|auto_generated|op_1~2_combout\ $end
$var wire 1 #! \Add0~1\ $end
$var wire 1 $! \Add0~2_combout\ $end
$var wire 1 %! \Ai[2]~input_o\ $end
$var wire 1 &! \Mult1|mult_core|mul_lfrg_first_mod|out_bit[1]~0_combout\ $end
$var wire 1 '! \Bi[2]~input_o\ $end
$var wire 1 (! \Mult1|mult_core|padder|_~0_combout\ $end
$var wire 1 )! \Mult1|mult_core|$00035|left_bit[0]~0_combout\ $end
$var wire 1 *! \Mult1|mult_core|padder|adder[0]|auto_generated|op_1~3\ $end
$var wire 1 +! \Mult1|mult_core|padder|adder[0]|auto_generated|op_1~4_combout\ $end
$var wire 1 ,! \Br[2]~input_o\ $end
$var wire 1 -! \Mult0|mult_core|$00035|left_bit[0]~0_combout\ $end
$var wire 1 .! \Ar[2]~input_o\ $end
$var wire 1 /! \Mult0|mult_core|mul_lfrg_first_mod|out_bit[1]~0_combout\ $end
$var wire 1 0! \Mult0|mult_core|padder|_~0_combout\ $end
$var wire 1 1! \Mult0|mult_core|padder|adder[0]|auto_generated|op_1~3\ $end
$var wire 1 2! \Mult0|mult_core|padder|adder[0]|auto_generated|op_1~4_combout\ $end
$var wire 1 3! \Add0~3\ $end
$var wire 1 4! \Add0~4_combout\ $end
$var wire 1 5! \Mult0|mult_core|mul_lfrg_last_mod|left_bit[0]~0_combout\ $end
$var wire 1 6! \Mult0|mult_core|padder|_~1_combout\ $end
$var wire 1 7! \Mult0|mult_core|padder|_~2_combout\ $end
$var wire 1 8! \Mult0|mult_core|padder|adder[0]|auto_generated|op_1~5\ $end
$var wire 1 9! \Mult0|mult_core|padder|adder[0]|auto_generated|op_1~6_combout\ $end
$var wire 1 :! \Mult1|mult_core|padder|_~1_combout\ $end
$var wire 1 ;! \Mult1|mult_core|padder|_~2_combout\ $end
$var wire 1 <! \Mult1|mult_core|mul_lfrg_last_mod|left_bit[0]~0_combout\ $end
$var wire 1 =! \Mult1|mult_core|padder|adder[0]|auto_generated|op_1~5\ $end
$var wire 1 >! \Mult1|mult_core|padder|adder[0]|auto_generated|op_1~6_combout\ $end
$var wire 1 ?! \Add0~5\ $end
$var wire 1 @! \Add0~6_combout\ $end
$var wire 1 A! \Mult0|mult_core|mul_lfrg_last_mod|left_bit[1]~1_combout\ $end
$var wire 1 B! \Mult0|mult_core|padder|_~3_combout\ $end
$var wire 1 C! \Mult0|mult_core|padder|adder[0]|auto_generated|op_1~7\ $end
$var wire 1 D! \Mult0|mult_core|padder|adder[0]|auto_generated|op_1~8_combout\ $end
$var wire 1 E! \Mult1|mult_core|padder|_~3_combout\ $end
$var wire 1 F! \Mult1|mult_core|mul_lfrg_last_mod|left_bit[1]~1_combout\ $end
$var wire 1 G! \Mult1|mult_core|padder|adder[0]|auto_generated|op_1~7\ $end
$var wire 1 H! \Mult1|mult_core|padder|adder[0]|auto_generated|op_1~8_combout\ $end
$var wire 1 I! \Add0~7\ $end
$var wire 1 J! \Add0~8_combout\ $end
$var wire 1 K! \Mult1|mult_core|padder|adder[0]|auto_generated|op_1~9\ $end
$var wire 1 L! \Mult1|mult_core|padder|adder[0]|auto_generated|op_1~10_combout\ $end
$var wire 1 M! \Mult0|mult_core|padder|adder[0]|auto_generated|op_1~9\ $end
$var wire 1 N! \Mult0|mult_core|padder|adder[0]|auto_generated|op_1~10_combout\ $end
$var wire 1 O! \Add0~9\ $end
$var wire 1 P! \Add0~10_combout\ $end
$var wire 1 Q! \Add0~11\ $end
$var wire 1 R! \Add0~12_combout\ $end
$var wire 1 S! \Mult3|mult_core|$00031|out_bit[0]~0_combout\ $end
$var wire 1 T! \Mult3|mult_core|padder|adder[0]|auto_generated|op_1~0_combout\ $end
$var wire 1 U! \Mult2|mult_core|$00031|out_bit[0]~0_combout\ $end
$var wire 1 V! \Mult2|mult_core|padder|adder[0]|auto_generated|op_1~0_combout\ $end
$var wire 1 W! \Add1~0_combout\ $end
$var wire 1 X! \Mult2|mult_core|mul_lfrg_first_mod|right_bit[0]~0_combout\ $end
$var wire 1 Y! \Mult2|mult_core|mul_lfrg_first_mod|left_bit[0]~0_combout\ $end
$var wire 1 Z! \Mult2|mult_core|padder|adder[0]|auto_generated|op_1~1\ $end
$var wire 1 [! \Mult2|mult_core|padder|adder[0]|auto_generated|op_1~2_combout\ $end
$var wire 1 \! \Mult3|mult_core|mul_lfrg_first_mod|left_bit[0]~0_combout\ $end
$var wire 1 ]! \Mult3|mult_core|mul_lfrg_first_mod|right_bit[0]~0_combout\ $end
$var wire 1 ^! \Mult3|mult_core|padder|adder[0]|auto_generated|op_1~1\ $end
$var wire 1 _! \Mult3|mult_core|padder|adder[0]|auto_generated|op_1~2_combout\ $end
$var wire 1 `! \Add1~1\ $end
$var wire 1 a! \Add1~2_combout\ $end
$var wire 1 b! \Mult3|mult_core|mul_lfrg_first_mod|out_bit[1]~0_combout\ $end
$var wire 1 c! \Mult3|mult_core|padder|_~0_combout\ $end
$var wire 1 d! \Mult3|mult_core|$00035|left_bit[0]~0_combout\ $end
$var wire 1 e! \Mult3|mult_core|padder|adder[0]|auto_generated|op_1~3\ $end
$var wire 1 f! \Mult3|mult_core|padder|adder[0]|auto_generated|op_1~4_combout\ $end
$var wire 1 g! \Mult2|mult_core|$00035|left_bit[0]~0_combout\ $end
$var wire 1 h! \Mult2|mult_core|mul_lfrg_first_mod|out_bit[1]~0_combout\ $end
$var wire 1 i! \Mult2|mult_core|padder|_~0_combout\ $end
$var wire 1 j! \Mult2|mult_core|padder|adder[0]|auto_generated|op_1~3\ $end
$var wire 1 k! \Mult2|mult_core|padder|adder[0]|auto_generated|op_1~4_combout\ $end
$var wire 1 l! \Add1~3\ $end
$var wire 1 m! \Add1~4_combout\ $end
$var wire 1 n! \Mult3|mult_core|mul_lfrg_last_mod|left_bit[0]~0_combout\ $end
$var wire 1 o! \Mult3|mult_core|padder|_~1_combout\ $end
$var wire 1 p! \Mult3|mult_core|padder|_~2_combout\ $end
$var wire 1 q! \Mult3|mult_core|padder|adder[0]|auto_generated|op_1~5\ $end
$var wire 1 r! \Mult3|mult_core|padder|adder[0]|auto_generated|op_1~6_combout\ $end
$var wire 1 s! \Mult2|mult_core|padder|_~1_combout\ $end
$var wire 1 t! \Mult2|mult_core|padder|_~2_combout\ $end
$var wire 1 u! \Mult2|mult_core|mul_lfrg_last_mod|left_bit[0]~0_combout\ $end
$var wire 1 v! \Mult2|mult_core|padder|adder[0]|auto_generated|op_1~5\ $end
$var wire 1 w! \Mult2|mult_core|padder|adder[0]|auto_generated|op_1~6_combout\ $end
$var wire 1 x! \Add1~5\ $end
$var wire 1 y! \Add1~6_combout\ $end
$var wire 1 z! \Mult3|mult_core|mul_lfrg_last_mod|left_bit[1]~1_combout\ $end
$var wire 1 {! \Mult3|mult_core|padder|_~3_combout\ $end
$var wire 1 |! \Mult3|mult_core|padder|adder[0]|auto_generated|op_1~7\ $end
$var wire 1 }! \Mult3|mult_core|padder|adder[0]|auto_generated|op_1~8_combout\ $end
$var wire 1 ~! \Mult2|mult_core|mul_lfrg_last_mod|left_bit[1]~1_combout\ $end
$var wire 1 !" \Mult2|mult_core|padder|_~3_combout\ $end
$var wire 1 "" \Mult2|mult_core|padder|adder[0]|auto_generated|op_1~7\ $end
$var wire 1 #" \Mult2|mult_core|padder|adder[0]|auto_generated|op_1~8_combout\ $end
$var wire 1 $" \Add1~7\ $end
$var wire 1 %" \Add1~8_combout\ $end
$var wire 1 &" \Mult3|mult_core|padder|adder[0]|auto_generated|op_1~9\ $end
$var wire 1 '" \Mult3|mult_core|padder|adder[0]|auto_generated|op_1~10_combout\ $end
$var wire 1 (" \Mult2|mult_core|padder|adder[0]|auto_generated|op_1~9\ $end
$var wire 1 )" \Mult2|mult_core|padder|adder[0]|auto_generated|op_1~10_combout\ $end
$var wire 1 *" \Add1~9\ $end
$var wire 1 +" \Add1~10_combout\ $end
$var wire 1 ," \Add1~11\ $end
$var wire 1 -" \Add1~12_combout\ $end
$upscope $end
$upscope $end
$enddefinitions $end
#0
$dumpvars
0;
1<
x=
1>
1?
1@
1A
1B
1C
0^
0_
0`
0a
0b
0c
0d
0e
0f
0g
0h
0i
0j
0k
xl
xm
xn
xo
xp
xq
xr
xs
xt
xu
xv
xw
xx
xy
xz
x{
x|
x}
x~
x!!
x"!
x#!
x$!
x%!
x&!
x'!
x(!
x)!
x*!
x+!
x,!
x-!
x.!
x/!
x0!
x1!
x2!
x3!
x4!
x5!
x6!
x7!
x8!
x9!
x:!
x;!
x<!
x=!
x>!
x?!
x@!
xA!
xB!
xC!
xD!
xE!
xF!
xG!
xH!
xI!
xJ!
xK!
xL!
xM!
xN!
xO!
xP!
xQ!
xR!
xS!
xT!
xU!
xV!
xW!
xX!
xY!
xZ!
x[!
x\!
x]!
x^!
x_!
x`!
xa!
xb!
xc!
xd!
xe!
xf!
xg!
xh!
xi!
xj!
xk!
xl!
xm!
xn!
xo!
xp!
xq!
xr!
xs!
xt!
xu!
xv!
xw!
xx!
xy!
xz!
x{!
x|!
x}!
x~!
x!"
x""
x#"
x$"
x%"
x&"
x'"
x("
x)"
x*"
x+"
x,"
x-"
0!
0"
0#
0$
0%
0&
0'
0(
0)
0*
0+
0,
0D
0E
0F
0G
0H
0I
0J
0K
0L
0M
0N
0O
0P
0Q
0R
0S
0T
0U
0V
0W
0X
0Y
0Z
0[
0\
0]
0-
0.
0/
00
01
02
03
04
05
06
07
08
09
0:
$end
#811
0l
0m
0n
0r
0w
0|
0'!
#812
0q
0s
0%!
0,!
0.!
#2438
06!
#2596
0o!
#2859
0A!
#4136
xj
xX
x.
#4244
xe
x]
x3
#4265
xi
xY
x/
#4440
xk
xW
x-
#4491
05!
#4557
xg
x[
x1
#4597
0u!
#4633
xb
xR
x6
#4649
x_
xU
x9
#4797
0z!
#4852
xd
xP
x4
#4885
0Y!
#4920
x`
xT
x8
#4929
0\!
#4932
0n!
#4943
xh
xZ
x0
#4974
0~
#4976
0s!
#4979
0t
#4984
0~!
#4993
0x
#5089
xc
xQ
x5
#5095
0g!
#5097
0X!
#5112
0!"
#5114
0U!
#5128
0!!
#5157
0h!
#5170
xa
xS
x7
#5200
0d!
0]!
#5201
0S!
1*!
#5231
xf
x\
x2
#5246
0)!
#5251
0}
#5257
0Z!
#5265
0F!
#5268
0:!
#5280
0<!
#5296
0b!
#5298
0{!
#5313
0p!
#5330
1j!
#5347
0E!
#5480
0B!
#5482
07!
#5485
0-!
#5515
0^!
#5559
0&!
#5588
1e!
#5634
0z
#5661
0q!
#5663
0y
#5668
0/!
#5700
0o
#5707
11!
#5756
0u
#5779
0t!
#5826
0v!
#5857
0("
#5861
0[!
#5893
0V!
#5899
1""
#5974
0=!
#5978
0T!
#6037
x^
xV
x:
#6081
0;!
#6106
0c!
#6172
0i!
#6215
0_!
#6217
08!
#6224
0M!
#6290
1C!
#6333
1|!
#6381
0(!
#6406
0&"
#6431
0{
#6434
0)"
#6460
00!
#6476
0#"
#6586
0K!
#6587
0w!
#6628
1#!
#6652
0p
#6698
1G!
#6792
0"!
#6794
09!
#6801
0N!
#6858
0r!
#6867
0D!
#6910
0}!
#6912
0`!
#6931
0k!
#6983
0'"
#6985
1l!
#7163
0L!
#7197
0W!
#7275
0H!
#7385
02!
#7399
0f!
#7429
0>!
#7489
0a!
#7521
03!
#7712
0*"
#7714
0+!
#7774
0$!
#7785
1,"
#7942
1$"
#8016
0v
#8133
0x!
#8178
0m!
#8289
0+"
#8362
0-"
#8519
0%"
#8584
1?!
#8657
0I!
#8710
0y!
#8730
1O!
#8803
0Q!
#8955
04!
#9161
0@!
#9234
0J!
#9307
0P!
#9380
0R!
#10000
1"
1%
1(
1+
1H
1E
1N
1K
#10764
1m
1w
1|
#10766
1q
#11304
0e
0]
03
#12252
0_
0U
09
#12276
0j
0X
0.
#12528
0g
0[
01
#12590
0k
0W
0-
#12650
0i
0Y
0/
#12704
0f
0\
02
#13454
0h
0Z
00
#13663
0`
0T
08
#13732
0b
0R
06
#14018
0d
0P
04
#14036
0^
0V
0:
#14199
0a
0S
07
#14245
0c
0Q
05
#14579
15!
#14657
1n!
#14770
1~
#14773
1t
#14853
1X!
#14861
1t!
#14864
1!"
#14865
1u!
#14866
1U!
#14956
1u
#14969
1]!
1S!
#14996
1{!
#14998
1p!
#15046
1V!
#15146
1E!
1;!
#15193
1B!
#15194
17!
#15283
1T!
#15348
1<!
#15369
1p
#15386
1y
#15388
1o
#15491
1"!
#15525
0u
#15568
0""
#15574
1[!
#15617
1!!
#15620
0V!
#15626
1w!
#15627
1#"
#15641
1("
#15643
0w!
#15649
1)"
#15659
0#!
#15690
1_!
0*!
#15695
1v
#15712
1Z!
#15721
0T!
#15732
13!
#15785
0j!
#15805
0?!
#15813
1^!
#15878
1I!
#15886
0e!
#15925
19!
#15951
0O!
#15956
1D!
#15978
1N!
#16024
1Q!
#16063
1r!
#16107
1{
#16111
0C!
#16135
1L!
#16145
0#"
#16184
1M!
#16186
09!
#16194
0"!
#16218
0)"
#16283
1W!
#16289
0[!
#16297
1+!
#16320
1}!
#16321
0v
1'"
#16339
14!
#16347
0p
#16390
0_!
#16392
1k!
#16397
1#!
#16412
1@!
#16417
0W!
#16427
1z
#16466
1a!
#16472
1H!
#16485
1J!
#16493
1f!
#16500
01!
#16509
1`!
#16558
1P!
#16559
1>!
#16582
0l!
#16583
0|!
#16631
1R!
#16655
0`!
#16656
1&"
#16658
0r!
#16687
1W!
#16688
0D!
#16696
0G!
#16749
1-"
#16761
0N!
#16769
1K!
#16771
0>!
#16775
1v
#16901
0P!
#16910
0R!
#16923
03!
#16924
0W!
#16982
1%"
#17004
0{
#17022
1R!
#17031
0,"
#17035
1y!
#17058
0%"
#17068
04!
#17095
1+"
#17097
0-"
#17106
0+"
#17107
12!
#17157
1*"
#17160
0}!
#17189
1m!
#17231
0m!
#17233
0'"
#17263
1l!
#17273
0H!
#17297
0J!
#17330
1x!
#17346
0L!
#17359
1P!
#17377
1O!
#17381
0*"
#17390
0O!
#17432
1%"
#17442
1J!
#17450
0Q!
#17454
1,"
#17463
1Q!
#17476
1$!
#17527
0@!
#17530
14!
#17534
1@!
#17601
1+"
#17626
0y!
#17659
0a!
#17701
1m!
#17711
0v
#17731
0R!
#17734
0+"
#17840
0m!
#17931
0%"
#17937
1y!
#17954
0P!
#17979
0J!
#17988
1+"
#17997
1P!
#18055
0+"
#18110
0P!
#18133
1P!
#18151
1R!
#18218
1J!
#18347
0$!
#18804
04!
#18896
1?!
#18969
0I!
#19042
1O!
#19115
0Q!
#19473
0@!
#19546
0J!
#19619
0P!
#19692
0R!
#20000
0"
0%
0(
0+
1!
1#
1$
1&
1'
1)
1*
1,
1I
0H
1G
1F
0E
1D
1O
0N
1M
1L
0K
1J
#20764
1n
1'!
1l
1r
#20766
1,!
1s
1.!
1%!
#20811
0m
0w
0|
#20812
0q
#20931
1e
1]
13
#21031
0e
0]
03
#21118
1b
1R
16
#21189
1k
1W
1-
#21259
1`
1T
18
#21325
0k
0W
0-
#21483
1d
1P
14
#21548
0d
0P
04
#21582
1a
1S
17
#21647
1c
1Q
15
#21697
1f
1i
1\
1Y
12
1/
#21732
1^
1V
1:
#21776
0`
0T
08
#21795
0b
0R
06
#21839
0c
0Q
05
#21874
1d
1P
14
#21978
1h
1Z
10
#22062
0i
0Y
0/
#22075
1b
1R
16
#22125
1_
1U
19
#22341
0^
0V
0:
#22369
0d
0P
04
#22370
0h
07!
0Z
00
#22371
0B!
#22437
05!
#22445
0n!
#22448
1c
1Q
15
#22450
1`
1T
18
#22477
0b
0R
06
#22565
0a
0S
07
#22704
1a
1S
17
#22719
0t!
#22721
0!"
#22752
1~!
#22812
1^
1V
1:
#22825
0_
0U
09
#22851
1b
1R
16
#22874
0f
0\
02
#22880
1h
1Z
10
#22892
0c
0Q
05
#23003
1d
1P
14
#23115
0M!
#23166
1D!
#23188
1N!
#23222
1c
1Q
15
#23335
19!
#23406
1C!
#23466
0("
#23512
0`
0T
08
#23517
1w!
#23588
1""
#23598
1("
#23661
0("
#23692
0N!
#23731
0^
0V
0:
#23732
09!
#23775
1r!
#23846
1|!
#23919
0&"
#23983
0D!
#24044
0b
0R
06
#24073
1)"
#24175
0)"
#24195
1#"
#24232
1R!
#24268
1)"
#24315
0u!
#24330
0d
0P
04
#24453
1}!
#24488
1J!
#24511
0a
0S
07
#24526
1'"
#24538
1h!
#24557
0c
0Q
05
#24569
1P!
#24571
0~
#24588
0E!
#24589
0;!
#24590
0{!
#24592
0p!
#24609
1F!
#24662
0R!
#24664
0X!
#24682
0$"
#24687
1Y!
#24701
0y
#24713
1@!
#24715
0~!
#24741
0h!
#24757
0y!
#24861
1y!
#24875
15!
#24881
1x
#24951
1c!
#24954
1-"
1n!
#24979
0t
#24982
0F!
#24985
1)!
#24987
0<!
#24995
1}
#25041
0P!
#25052
0]!
#25073
0@!
#25097
0Y!
#25107
1g!
#25114
0U!
#25119
0w!
1t!
#25121
1i!
#25123
1!"
#25124
1u!
#25128
0!!
#25147
1h!
#25160
1u
#25201
1*!
#25257
0Z!
#25272
1U!
#25274
0J!
#25289
1V!
#25290
1*"
#25295
1b!
#25297
1{!
#25299
1p!
#25300
0g!
#25301
1+"
#25317
1"!
#25330
1j!
#25334
1t
#25342
0o
#25359
1E!
#25360
1;!
#25362
1(!
#25363
0,"
#25406
0)!
#25447
1{
#25492
1B!
#25493
17!
#25494
10!
#25501
0#"
#25515
0^!
#25521
0-"
0+"
#25534
1L!
#25540
0)"
#25547
1T!
#25548
1s!
#25550
1%"
#25558
1&!
1+"
1-"
#25566
1<!
#25568
0}
#25572
11!
#25588
1e!
#25590
0i!
#25634
0z
#25667
1p
#25686
1o
#25688
1/!
#25703
0x
#25705
0"!
#25716
0-"
0+"
#25733
0s!
#25754
1i!
#25756
0u
#25798
1_!
#25827
0""
0K!
#25829
0{
#25837
0}!
#25855
0k!
#25863
0#!
#25864
1[!
#25865
0[!
#25872
0'"
#25884
1w!
#25886
1#"
#25893
0V!
#25897
1+"
#25899
1v
#25900
1("
#25902
0w!
#25907
0L!
#25908
1)"
#25927
1>!
#25936
13!
#25968
1v!
#25970
1-"
#25984
1K!
#25998
1G!
#26007
1V!
#26009
0?!
#26031
0v!
#26040
1o!
#26054
1$!
#26066
0c!
#26067
1u
#26071
0K!
#26082
1I!
#26086
1k!
#26092
0_!
#26137
0r!
#26149
02!
#26155
0O!
#26157
1s!
#26165
0f!
0+!
#26199
0i!
#26208
1H!
#26209
1L!
#26221
19!
#26228
1Q!
#26241
1{
#26255
1D!
#26277
1N!
#26281
1P!
#26287
0!"
#26294
0p
#26298
1:!
#26299
1R!
#26304
0-"
#26312
0t!
#26316
1f!
#26336
0>!
#26341
0(!
#26349
0k!
#26360
1r!
#26386
16!
#26404
0#"
#26405
0y!
#26410
0C!
#26440
0$!
#26449
00!
#26456
12!
#26468
1$!
#26477
0)"
#26483
1M!
#26485
09!
#26501
1!"
#26508
1k!
#26535
1t!
#26543
14!
#26547
1W!
#26552
0v
#26574
1a!
#26575
1w!
0H!
#26603
0{!
#26604
0p!
#26608
0%"
0w!
#26616
1@!
#26621
1}!
1"!
1p
#26622
1'"
#26628
1#!
#26630
0{
#26660
0W!
#26682
0@!
#26685
1H!
#26689
1J!
#26694
0+"
#26701
03!
#26737
0*"
#26752
1`!
#26770
0#!
#26773
1>!
#26774
1?!
#26784
1+!
#26788
1%"
#26806
1v
#26810
1,"
#26841
0$!
#26843
13!
#26847
0I!
#26884
0|!
#26896
0!"
0a!
#26899
0x!
#26914
0G!
#26921
0t!
#26923
1-"
1+"
#26954
1m!
#26957
1&"
#26958
0k!
#26959
0r!
#26969
04!
#26972
1$"
#26975
0P!
#26984
0R!
#26987
0D!
1K!
#26989
0>!
#27028
0-"
#27032
0("
#27045
1*"
#27054
0m!
#27060
0N!
#27071
0;!
#27072
0E!
#27083
1#"
#27095
1y!
#27097
0v
#27099
1@!
#27105
1)"
#27109
0"!
#27110
1w!
#27118
0,"
#27122
1m!
#27145
0`!
#27177
1#!
#27178
1W!
#27181
1""
#27194
0J!
#27221
0%"
#27235
0""
#27244
0#"
#27250
03!
#27288
0)"
#27308
14!
#27310
0w!
#27314
0+"
#27321
1R!
#27323
0?!
#27342
0y!
#27351
0@!
#27354
1+"
#27359
0f!
1a!
#27374
02!
#27375
0m!
#27377
1%"
#27378
0W!
#27407
0+"
#27420
04!
#27454
1J!
#27461
0}!
#27470
1`!
#27488
1x!
#27491
0H!
#27506
1y!
#27510
1@!
#27530
14!
#27534
0'"
#27536
0J!
#27549
0%"
#27564
0L!
#27565
0x!
#27577
1J!
#27602
0#!
#27610
1$!
#27612
1O!
#27616
1m!
#27624
0@!
#27634
1v
#27639
1)"
#27640
0*"
#27652
1+"
#27658
1P!
#27671
0J!
#27674
0+!
#27675
13!
#27685
0Q!
#27691
1%"
#27713
1,"
#27716
0)"
#27719
1w!
04!
#27722
0a!
#27725
1-"
#27739
0B!
#27740
07!
#27752
1@!
#27754
0$!
#27790
1""
#27797
0m!
#27819
0&"
#27842
1#"
#27857
14!
#27862
0+"
0-"
#27870
1}!
#27871
1'"
#27872
1$!
#27892
1I!
#27910
1x!
#27927
0y!
#27965
0O!
#27973
0$!
#28018
1L!
#28038
1Q!
#28051
0v
#28077
1a!
#28093
0x!
#28095
1y!
#28131
1#!
#28142
0y!
#28147
1r!
#28148
1m!
#28189
0P!
#28204
03!
#28205
0m!
#28209
1$!
#28218
1|!
#28232
0%"
#28247
1+"
#28259
1J!
#28277
1?!
#28311
0K!
#28350
0I!
#28351
1P!
#28356
0+"
#28366
1H!
#28367
0#"
#28379
0R!
#28396
0'"
#28409
1>!
0P!
#28423
1O!
#28438
1%"
#28478
04!
#28480
1G!
#28483
0M!
#28511
0%"
#28534
1D!
#28551
1+"
#28556
1N!
#28572
1P!
#28581
0,"
#28626
1%"
#28645
1R!
#28656
0+"
#28671
1-"
1+"
#28705
19!
#28708
0$!
#28742
1,"
#28776
1C!
#28784
0P!
#28793
0R!
#28795
0}!
#28811
14!
#28854
0@!
#28888
0L!
#28927
0J!
#28944
04!
#29012
0,"
#29030
1P!
#29054
0$"
#29057
0H!
#29060
0N!
#29063
1y!
#29084
1d
1P
14
#29087
0+"
#29099
1+"
#29121
1b
1R
16
#29127
1*"
#29129
0y!
#29146
1@!
#29170
1,"
#29177
0%"
#29218
0+"
#29256
1I!
#29284
0O!
#29300
0d
0P
04
#29319
0-"
#29336
1J!
#29353
0D!
#29394
1k
1W
1-
#29437
1j
1X
1.
#29501
0h
0Z
00
#29508
0j
0X
0.
#29603
0*"
#29619
1-"
#29654
1%"
#29658
1c
1Q
15
#29694
0P!
1j
1X
1.
#29703
0j
0X
0.
#29734
1+"
#29747
0-"
#29749
0k
0W
0-
#29772
0b
0R
06
#29804
1h
1Z
10
#29815
1i
1Y
1/
#29833
0J!
#29856
1J!
#29883
1a
1S
17
#29885
0Q!
#29891
1P!
#29953
0P!
#29979
0c
0Q
05
#30000
1%
0!
0$
0&
0)
0*
0,
0F
1E
0D
0G
0O
0L
0J
#30018
0J!
#30033
1j
1X
1.
#30038
0I!
#30052
1R!
#30094
1O!
#30108
0@!
#30111
0a
0S
07
#30180
0+"
#30393
1P!
#30410
1k
1W
1-
#30462
0R!
#30532
0k
0W
0-
#30671
0P!
#30681
0j
0X
0.
#30703
1_
1U
19
#30739
0i
0Y
0/
#30764
1w
#30811
0n
0l
#30812
0,!
0s
0%!
0.!
#30918
0_
0U
09
#31053
1i
1Y
1/
#31059
1j
1X
1.
#31117
1_
1U
19
#31149
0h
0Z
00
#31151
1d
1P
14
#31301
0j
0X
0.
#31319
0_
0U
09
#31322
1b
1R
16
#31352
0i
0Y
0/
#31370
1c
1Q
15
#31422
1e
1]
13
#31463
1`
1T
18
#31485
0e
0]
03
#31622
0d
0P
04
#31642
1i
1Y
1/
#31677
0`
0T
08
#31679
1g
1[
11
#31680
0i
0Y
0/
#31692
0b
0R
06
#31725
0g
0[
01
#31788
1j
1X
1.
#31805
1f
1\
12
#31849
0j
0X
0.
#31913
0c
0Q
05
#31936
1^
1V
1:
#31956
1i
1Y
1/
#32038
1h
1Z
10
#32086
0h
0Z
00
#32111
0f
0\
02
#32173
1d
1P
14
#32269
1a
1S
17
#32363
0i
0Y
0/
#32389
0a
0S
07
#32438
06!
#32449
1h
1Z
10
#32456
10!
#32512
0/!
#32538
17!
#32572
0^
0V
0:
#32590
1f
1\
12
#32593
0n!
#32596
0o!
#32610
1c!
05!
#32671
0h
0Z
00
#32747
1c
1Q
15
#32777
1`
1T
18
#32807
1j
1X
1.
#32843
1^
1V
1:
#32854
1t!
#32858
1_
1U
19
#32891
1i
1Y
1/
#32892
1b
1R
16
#32909
1~!
#32922
1a
1S
17
#32937
0f
0\
02
#33017
0d
0P
04
#33074
0j
0X
0.
#33111
1k
1W
1-
#33117
0^
0V
0:
#33127
0c
0Q
05
#33128
0h!
#33186
0`
0_
0T
0U
09
08
#33200
1{!
#33203
1p!
#33304
00!
